loopback_testbench.vcd
$date
    Mon Dec 10 13:28:44 2018
$end
$version
    MyHDL 0.10
$end
$timescale
    1ns
$end

$scope module loopback_testbench $end
$var reg 8 ! segmentos $end
$var reg 4 " anodos $end
$var reg 1 # rst $end
$var reg 1 $ clk $end
$var reg 1 % tx $end
$var reg 1 & rx $end
$var reg 8 ' rx_data $end
$scope module clk_n_timeout0 $end
$var reg 1 # rst $end
$var reg 1 $ clk $end
$upscope $end
$scope module Loopback0 $end
$var reg 9 ( value $end
$var reg 8 ) dat $end
$var reg 1 * rx_ready $end
$var reg 1 + tx_ready $end
$var reg 8 ! segmentos_o $end
$var reg 4 " anodos_o $end
$var reg 1 % tx_o $end
$var reg 1 & rx_i $end
$var reg 1 # rst_i $end
$var reg 1 $ clk_i $end
$var reg 1 , tx_start $end
$var real 1 - state $end
$var reg 8 . rx_dat $end
$var reg 1 / full $end
$var reg 1 0 enqueue $end
$var reg 1 1 empty $end
$var reg 1 2 dequeue $end
$scope module UART0 $end
$var reg 1 3 tx_tick $end
$var reg 1 4 rx_tick $end
$var reg 1 & rx_i $end
$var reg 1 * rx_ready_o $end
$var reg 8 . rx_dat_o $end
$var reg 1 % tx_o $end
$var reg 1 + tx_ready_o $end
$var reg 1 , tx_start_i $end
$var reg 8 ) tx_dat_i $end
$var reg 1 # rst_i $end
$var reg 1 $ clk_i $end
$scope module clk_div0 $end
$var reg 1 # rst_i $end
$var reg 1 $ clk_i $end
$var reg 1 4 uart_tick_x8 $end
$var reg 1 3 uart_tick $end
$var reg 6 5 counter8 $end
$var reg 3 6 counter $end
$upscope $end
$scope module uart_tx0 $end
$var reg 1 # rst_i $end
$var reg 1 $ clk_i $end
$var reg 1 3 tx_tick_i $end
$var reg 1 % tx_o $end
$var real 1 7 state $end
$var reg 1 , start_i $end
$var reg 1 + ready_o $end
$var reg 8 8 data $end
$var reg 8 ) dat_i $end
$var reg 4 9 cnt $end
$upscope $end
$scope module uart_rx0 $end
$var reg 1 # rst_i $end
$var reg 1 $ clk_i $end
$var real 1 : state $end
$var reg 1 4 rx_tick_i $end
$var reg 3 ; rx_sync $end
$var reg 1 < rx_r $end
$var reg 1 & rx_i $end
$var reg 1 * ready_o $end
$var reg 1 = nxt_bit $end
$var reg 8 > dat_r $end
$var reg 8 . dat_o $end
$var reg 2 ? bit_start $end
$var reg 3 @ bit_spacing $end
$var reg 3 A bit_cnt $end
$upscope $end
$upscope $end
$scope module FIFO0 $end
$var reg 1 # rst_i $end
$var reg 1 $ clk_i $end
$var reg 8 B ram_dat_o $end
$var reg 1 / full_o $end
$var reg 8 C enqueue_ptr $end
$var reg 1 0 enqueue_i $end
$var reg 1 1 empty_o $end
$var reg 8 D dequeue_ptr $end
$var reg 1 2 dequeue_i $end
$var reg 8 ) dat_o $end
$var reg 8 . dat_i $end
$var reg 9 ( count_o $end
$var reg 1 E _full $end
$var reg 1 F _enqueue $end
$var reg 1 G _empty $end
$var reg 1 H _dequeue $end
$var reg 9 I _count $end
$scope module RAM_DP0 $end
$var reg 1 $ clk_i $end
$var reg 1 F we_i $end
$var reg 8 C waddr_i $end
$var reg 8 D raddr_i $end
$var reg 8 B dat_o $end
$var reg 8 . dat_i $end
$scope module _ram $end
$var reg 8 J _ram(0) $end
$var reg 8 K _ram(1) $end
$var reg 8 L _ram(2) $end
$var reg 8 M _ram(3) $end
$var reg 8 N _ram(4) $end
$var reg 8 O _ram(5) $end
$var reg 8 P _ram(6) $end
$var reg 8 Q _ram(7) $end
$var reg 8 R _ram(8) $end
$var reg 8 S _ram(9) $end
$var reg 8 T _ram(10) $end
$var reg 8 U _ram(11) $end
$var reg 8 V _ram(12) $end
$var reg 8 W _ram(13) $end
$var reg 8 X _ram(14) $end
$var reg 8 Y _ram(15) $end
$var reg 8 Z _ram(16) $end
$var reg 8 [ _ram(17) $end
$var reg 8 \ _ram(18) $end
$var reg 8 ] _ram(19) $end
$var reg 8 ^ _ram(20) $end
$var reg 8 _ _ram(21) $end
$var reg 8 ` _ram(22) $end
$var reg 8 a _ram(23) $end
$var reg 8 b _ram(24) $end
$var reg 8 c _ram(25) $end
$var reg 8 d _ram(26) $end
$var reg 8 e _ram(27) $end
$var reg 8 f _ram(28) $end
$var reg 8 g _ram(29) $end
$var reg 8 h _ram(30) $end
$var reg 8 i _ram(31) $end
$var reg 8 j _ram(32) $end
$var reg 8 k _ram(33) $end
$var reg 8 l _ram(34) $end
$var reg 8 m _ram(35) $end
$var reg 8 n _ram(36) $end
$var reg 8 o _ram(37) $end
$var reg 8 p _ram(38) $end
$var reg 8 q _ram(39) $end
$var reg 8 r _ram(40) $end
$var reg 8 s _ram(41) $end
$var reg 8 t _ram(42) $end
$var reg 8 u _ram(43) $end
$var reg 8 v _ram(44) $end
$var reg 8 w _ram(45) $end
$var reg 8 x _ram(46) $end
$var reg 8 y _ram(47) $end
$var reg 8 z _ram(48) $end
$var reg 8 { _ram(49) $end
$var reg 8 | _ram(50) $end
$var reg 8 } _ram(51) $end
$var reg 8 ~ _ram(52) $end
$var reg 8 "! _ram(53) $end
$var reg 8 "" _ram(54) $end
$var reg 8 "# _ram(55) $end
$var reg 8 "$ _ram(56) $end
$var reg 8 "% _ram(57) $end
$var reg 8 "& _ram(58) $end
$var reg 8 "' _ram(59) $end
$var reg 8 "( _ram(60) $end
$var reg 8 ") _ram(61) $end
$var reg 8 "* _ram(62) $end
$var reg 8 "+ _ram(63) $end
$var reg 8 ", _ram(64) $end
$var reg 8 "- _ram(65) $end
$var reg 8 ". _ram(66) $end
$var reg 8 "/ _ram(67) $end
$var reg 8 "0 _ram(68) $end
$var reg 8 "1 _ram(69) $end
$var reg 8 "2 _ram(70) $end
$var reg 8 "3 _ram(71) $end
$var reg 8 "4 _ram(72) $end
$var reg 8 "5 _ram(73) $end
$var reg 8 "6 _ram(74) $end
$var reg 8 "7 _ram(75) $end
$var reg 8 "8 _ram(76) $end
$var reg 8 "9 _ram(77) $end
$var reg 8 ": _ram(78) $end
$var reg 8 "; _ram(79) $end
$var reg 8 "< _ram(80) $end
$var reg 8 "= _ram(81) $end
$var reg 8 "> _ram(82) $end
$var reg 8 "? _ram(83) $end
$var reg 8 "@ _ram(84) $end
$var reg 8 "A _ram(85) $end
$var reg 8 "B _ram(86) $end
$var reg 8 "C _ram(87) $end
$var reg 8 "D _ram(88) $end
$var reg 8 "E _ram(89) $end
$var reg 8 "F _ram(90) $end
$var reg 8 "G _ram(91) $end
$var reg 8 "H _ram(92) $end
$var reg 8 "I _ram(93) $end
$var reg 8 "J _ram(94) $end
$var reg 8 "K _ram(95) $end
$var reg 8 "L _ram(96) $end
$var reg 8 "M _ram(97) $end
$var reg 8 "N _ram(98) $end
$var reg 8 "O _ram(99) $end
$var reg 8 "P _ram(100) $end
$var reg 8 "Q _ram(101) $end
$var reg 8 "R _ram(102) $end
$var reg 8 "S _ram(103) $end
$var reg 8 "T _ram(104) $end
$var reg 8 "U _ram(105) $end
$var reg 8 "V _ram(106) $end
$var reg 8 "W _ram(107) $end
$var reg 8 "X _ram(108) $end
$var reg 8 "Y _ram(109) $end
$var reg 8 "Z _ram(110) $end
$var reg 8 "[ _ram(111) $end
$var reg 8 "\ _ram(112) $end
$var reg 8 "] _ram(113) $end
$var reg 8 "^ _ram(114) $end
$var reg 8 "_ _ram(115) $end
$var reg 8 "` _ram(116) $end
$var reg 8 "a _ram(117) $end
$var reg 8 "b _ram(118) $end
$var reg 8 "c _ram(119) $end
$var reg 8 "d _ram(120) $end
$var reg 8 "e _ram(121) $end
$var reg 8 "f _ram(122) $end
$var reg 8 "g _ram(123) $end
$var reg 8 "h _ram(124) $end
$var reg 8 "i _ram(125) $end
$var reg 8 "j _ram(126) $end
$var reg 8 "k _ram(127) $end
$var reg 8 "l _ram(128) $end
$var reg 8 "m _ram(129) $end
$var reg 8 "n _ram(130) $end
$var reg 8 "o _ram(131) $end
$var reg 8 "p _ram(132) $end
$var reg 8 "q _ram(133) $end
$var reg 8 "r _ram(134) $end
$var reg 8 "s _ram(135) $end
$var reg 8 "t _ram(136) $end
$var reg 8 "u _ram(137) $end
$var reg 8 "v _ram(138) $end
$var reg 8 "w _ram(139) $end
$var reg 8 "x _ram(140) $end
$var reg 8 "y _ram(141) $end
$var reg 8 "z _ram(142) $end
$var reg 8 "{ _ram(143) $end
$var reg 8 "| _ram(144) $end
$var reg 8 "} _ram(145) $end
$var reg 8 "~ _ram(146) $end
$var reg 8 #! _ram(147) $end
$var reg 8 #" _ram(148) $end
$var reg 8 ## _ram(149) $end
$var reg 8 #$ _ram(150) $end
$var reg 8 #% _ram(151) $end
$var reg 8 #& _ram(152) $end
$var reg 8 #' _ram(153) $end
$var reg 8 #( _ram(154) $end
$var reg 8 #) _ram(155) $end
$var reg 8 #* _ram(156) $end
$var reg 8 #+ _ram(157) $end
$var reg 8 #, _ram(158) $end
$var reg 8 #- _ram(159) $end
$var reg 8 #. _ram(160) $end
$var reg 8 #/ _ram(161) $end
$var reg 8 #0 _ram(162) $end
$var reg 8 #1 _ram(163) $end
$var reg 8 #2 _ram(164) $end
$var reg 8 #3 _ram(165) $end
$var reg 8 #4 _ram(166) $end
$var reg 8 #5 _ram(167) $end
$var reg 8 #6 _ram(168) $end
$var reg 8 #7 _ram(169) $end
$var reg 8 #8 _ram(170) $end
$var reg 8 #9 _ram(171) $end
$var reg 8 #: _ram(172) $end
$var reg 8 #; _ram(173) $end
$var reg 8 #< _ram(174) $end
$var reg 8 #= _ram(175) $end
$var reg 8 #> _ram(176) $end
$var reg 8 #? _ram(177) $end
$var reg 8 #@ _ram(178) $end
$var reg 8 #A _ram(179) $end
$var reg 8 #B _ram(180) $end
$var reg 8 #C _ram(181) $end
$var reg 8 #D _ram(182) $end
$var reg 8 #E _ram(183) $end
$var reg 8 #F _ram(184) $end
$var reg 8 #G _ram(185) $end
$var reg 8 #H _ram(186) $end
$var reg 8 #I _ram(187) $end
$var reg 8 #J _ram(188) $end
$var reg 8 #K _ram(189) $end
$var reg 8 #L _ram(190) $end
$var reg 8 #M _ram(191) $end
$var reg 8 #N _ram(192) $end
$var reg 8 #O _ram(193) $end
$var reg 8 #P _ram(194) $end
$var reg 8 #Q _ram(195) $end
$var reg 8 #R _ram(196) $end
$var reg 8 #S _ram(197) $end
$var reg 8 #T _ram(198) $end
$var reg 8 #U _ram(199) $end
$var reg 8 #V _ram(200) $end
$var reg 8 #W _ram(201) $end
$var reg 8 #X _ram(202) $end
$var reg 8 #Y _ram(203) $end
$var reg 8 #Z _ram(204) $end
$var reg 8 #[ _ram(205) $end
$var reg 8 #\ _ram(206) $end
$var reg 8 #] _ram(207) $end
$var reg 8 #^ _ram(208) $end
$var reg 8 #_ _ram(209) $end
$var reg 8 #` _ram(210) $end
$var reg 8 #a _ram(211) $end
$var reg 8 #b _ram(212) $end
$var reg 8 #c _ram(213) $end
$var reg 8 #d _ram(214) $end
$var reg 8 #e _ram(215) $end
$var reg 8 #f _ram(216) $end
$var reg 8 #g _ram(217) $end
$var reg 8 #h _ram(218) $end
$var reg 8 #i _ram(219) $end
$var reg 8 #j _ram(220) $end
$var reg 8 #k _ram(221) $end
$var reg 8 #l _ram(222) $end
$var reg 8 #m _ram(223) $end
$var reg 8 #n _ram(224) $end
$var reg 8 #o _ram(225) $end
$var reg 8 #p _ram(226) $end
$var reg 8 #q _ram(227) $end
$var reg 8 #r _ram(228) $end
$var reg 8 #s _ram(229) $end
$var reg 8 #t _ram(230) $end
$var reg 8 #u _ram(231) $end
$var reg 8 #v _ram(232) $end
$var reg 8 #w _ram(233) $end
$var reg 8 #x _ram(234) $end
$var reg 8 #y _ram(235) $end
$var reg 8 #z _ram(236) $end
$var reg 8 #{ _ram(237) $end
$var reg 8 #| _ram(238) $end
$var reg 8 #} _ram(239) $end
$var reg 8 #~ _ram(240) $end
$var reg 8 $! _ram(241) $end
$var reg 8 $" _ram(242) $end
$var reg 8 $# _ram(243) $end
$var reg 8 $$ _ram(244) $end
$var reg 8 $% _ram(245) $end
$var reg 8 $& _ram(246) $end
$var reg 8 $' _ram(247) $end
$var reg 8 $( _ram(248) $end
$var reg 8 $) _ram(249) $end
$var reg 8 $* _ram(250) $end
$var reg 8 $+ _ram(251) $end
$var reg 8 $, _ram(252) $end
$var reg 8 $- _ram(253) $end
$var reg 8 $. _ram(254) $end
$var reg 8 $/ _ram(255) $end
$upscope $end
$upscope $end
$upscope $end
$scope module driver7seg0 $end
$var reg 9 ( value_i $end
$var reg 1 # rst_i $end
$var reg 1 $ clk_i $end
$var reg 1 $0 tick $end
$var reg 4 $1 thousand $end
$var reg 4 $2 ten $end
$var reg 8 ! segmentos_o $end
$var reg 4 $3 one $end
$var reg 4 $4 hundred $end
$var reg 18 $5 counter $end
$var reg 4 " anodos_o $end
$var reg 4 $6 anodos $end
$scope module bin2bcd0 $end
$var reg 1 # rst_i $end
$var reg 1 $ clk_i $end
$var reg 4 $1 thousands_o $end
$var reg 4 $2 tens_o $end
$var reg 4 $3 ones_o $end
$var reg 4 $4 hundreds_o $end
$var reg 9 ( binary_i $end
$scope module shift $end
$var reg 25 $7 shift(0) $end
$var reg 25 $8 shift(1) $end
$var reg 25 $9 shift(2) $end
$var reg 25 $: shift(3) $end
$var reg 25 $; shift(4) $end
$var reg 25 $< shift(5) $end
$var reg 25 $= shift(6) $end
$var reg 25 $> shift(7) $end
$var reg 25 $? shift(8) $end
$var reg 25 $@ shift(9) $end
$upscope $end
$upscope $end
$upscope $end
$upscope $end
$upscope $end

$enddefinitions $end
$dumpvars
b00000000 !
b0000 "
0#
0$
0%
1&
b00000000 '
b000000000 (
b00000000 )
0*
0+
0,
sIDLE -
b00000000 .
0/
00
01
02
03
04
b000000 5
b000 6
sIDLE 7
b00000000 8
b0000 9
sIDLE :
b111 ;
1<
0=
b00000000 >
b00 ?
b000 @
b000 A
b00000000 B
b00000000 C
b00000000 D
0E
0F
0G
0H
b000000000 I
b00000000 J
b00000000 K
b00000000 L
b00000000 M
b00000000 N
b00000000 O
b00000000 P
b00000000 Q
b00000000 R
b00000000 S
b00000000 T
b00000000 U
b00000000 V
b00000000 W
b00000000 X
b00000000 Y
b00000000 Z
b00000000 [
b00000000 \
b00000000 ]
b00000000 ^
b00000000 _
b00000000 `
b00000000 a
b00000000 b
b00000000 c
b00000000 d
b00000000 e
b00000000 f
b00000000 g
b00000000 h
b00000000 i
b00000000 j
b00000000 k
b00000000 l
b00000000 m
b00000000 n
b00000000 o
b00000000 p
b00000000 q
b00000000 r
b00000000 s
b00000000 t
b00000000 u
b00000000 v
b00000000 w
b00000000 x
b00000000 y
b00000000 z
b00000000 {
b00000000 |
b00000000 }
b00000000 ~
b00000000 "!
b00000000 ""
b00000000 "#
b00000000 "$
b00000000 "%
b00000000 "&
b00000000 "'
b00000000 "(
b00000000 ")
b00000000 "*
b00000000 "+
b00000000 ",
b00000000 "-
b00000000 ".
b00000000 "/
b00000000 "0
b00000000 "1
b00000000 "2
b00000000 "3
b00000000 "4
b00000000 "5
b00000000 "6
b00000000 "7
b00000000 "8
b00000000 "9
b00000000 ":
b00000000 ";
b00000000 "<
b00000000 "=
b00000000 ">
b00000000 "?
b00000000 "@
b00000000 "A
b00000000 "B
b00000000 "C
b00000000 "D
b00000000 "E
b00000000 "F
b00000000 "G
b00000000 "H
b00000000 "I
b00000000 "J
b00000000 "K
b00000000 "L
b00000000 "M
b00000000 "N
b00000000 "O
b00000000 "P
b00000000 "Q
b00000000 "R
b00000000 "S
b00000000 "T
b00000000 "U
b00000000 "V
b00000000 "W
b00000000 "X
b00000000 "Y
b00000000 "Z
b00000000 "[
b00000000 "\
b00000000 "]
b00000000 "^
b00000000 "_
b00000000 "`
b00000000 "a
b00000000 "b
b00000000 "c
b00000000 "d
b00000000 "e
b00000000 "f
b00000000 "g
b00000000 "h
b00000000 "i
b00000000 "j
b00000000 "k
b00000000 "l
b00000000 "m
b00000000 "n
b00000000 "o
b00000000 "p
b00000000 "q
b00000000 "r
b00000000 "s
b00000000 "t
b00000000 "u
b00000000 "v
b00000000 "w
b00000000 "x
b00000000 "y
b00000000 "z
b00000000 "{
b00000000 "|
b00000000 "}
b00000000 "~
b00000000 #!
b00000000 #"
b00000000 ##
b00000000 #$
b00000000 #%
b00000000 #&
b00000000 #'
b00000000 #(
b00000000 #)
b00000000 #*
b00000000 #+
b00000000 #,
b00000000 #-
b00000000 #.
b00000000 #/
b00000000 #0
b00000000 #1
b00000000 #2
b00000000 #3
b00000000 #4
b00000000 #5
b00000000 #6
b00000000 #7
b00000000 #8
b00000000 #9
b00000000 #:
b00000000 #;
b00000000 #<
b00000000 #=
b00000000 #>
b00000000 #?
b00000000 #@
b00000000 #A
b00000000 #B
b00000000 #C
b00000000 #D
b00000000 #E
b00000000 #F
b00000000 #G
b00000000 #H
b00000000 #I
b00000000 #J
b00000000 #K
b00000000 #L
b00000000 #M
b00000000 #N
b00000000 #O
b00000000 #P
b00000000 #Q
b00000000 #R
b00000000 #S
b00000000 #T
b00000000 #U
b00000000 #V
b00000000 #W
b00000000 #X
b00000000 #Y
b00000000 #Z
b00000000 #[
b00000000 #\
b00000000 #]
b00000000 #^
b00000000 #_
b00000000 #`
b00000000 #a
b00000000 #b
b00000000 #c
b00000000 #d
b00000000 #e
b00000000 #f
b00000000 #g
b00000000 #h
b00000000 #i
b00000000 #j
b00000000 #k
b00000000 #l
b00000000 #m
b00000000 #n
b00000000 #o
b00000000 #p
b00000000 #q
b00000000 #r
b00000000 #s
b00000000 #t
b00000000 #u
b00000000 #v
b00000000 #w
b00000000 #x
b00000000 #y
b00000000 #z
b00000000 #{
b00000000 #|
b00000000 #}
b00000000 #~
b00000000 $!
b00000000 $"
b00000000 $#
b00000000 $$
b00000000 $%
b00000000 $&
b00000000 $'
b00000000 $(
b00000000 $)
b00000000 $*
b00000000 $+
b00000000 $,
b00000000 $-
b00000000 $.
b00000000 $/
0$0
b0000 $1
b0000 $2
b0000 $3
b0000 $4
b000000000000000000 $5
b0001 $6
b0000000000000000000000000 $7
b0000000000000000000000000 $8
b0000000000000000000000000 $9
b0000000000000000000000000 $:
b0000000000000000000000000 $;
b0000000000000000000000000 $<
b0000000000000000000000000 $=
b0000000000000000000000000 $>
b0000000000000000000000000 $?
b0000000000000000000000000 $@
$end
b0001 "
b00000011 !
1G
1#
11
#1
1$
#2
0$
#3
1$
#4
0$
#5
1$
#6
0$
#7
1$
#8
0$
#9
1$
#10
0$
0#
#11
1$
b000000000000000001 $5
1+
1%
14
b000001 5
b001 6
#12
0$
#13
1$
b000010 5
04
b000000000000000010 $5
#14
0$
#15
1$
b000000000000000011 $5
b000011 5
#16
0$
#17
1$
b000100 5
b000000000000000100 $5
#18
0$
#19
1$
b000000000000000101 $5
b000101 5
#20
0$
#21
1$
b000110 5
b000000000000000110 $5
#22
0$
#23
1$
b000000000000000111 $5
b000111 5
#24
0$
#25
1$
b001000 5
b000000000000001000 $5
#26
0$
#27
1$
b000000000000001001 $5
b001001 5
#28
0$
#29
1$
b001010 5
b000000000000001010 $5
#30
0$
#31
1$
b000000000000001011 $5
b001011 5
#32
0$
#33
1$
b001100 5
b000000000000001100 $5
#34
0$
#35
1$
b000000000000001101 $5
b001101 5
#36
0$
#37
1$
b001110 5
b000000000000001110 $5
#38
0$
#39
1$
b000000000000001111 $5
b001111 5
#40
0$
#41
1$
b010000 5
b000000000000010000 $5
#42
0$
#43
1$
b000000000000010001 $5
b010001 5
#44
0$
#45
1$
b010010 5
b000000000000010010 $5
#46
0$
#47
1$
b000000000000010011 $5
b010011 5
#48
0$
#49
1$
b010100 5
b000000000000010100 $5
#50
0$
#51
1$
b000000000000010101 $5
b010101 5
#52
0$
#53
1$
b010110 5
b000000000000010110 $5
#54
0$
#55
1$
b000000000000010111 $5
b010111 5
#56
0$
#57
1$
b011000 5
b000000000000011000 $5
#58
0$
#59
1$
b000000000000011001 $5
b011001 5
#60
0$
#61
1$
b011010 5
b000000000000011010 $5
#62
0$
#63
1$
b000000000000011011 $5
b011011 5
#64
0$
#65
1$
b011100 5
b000000000000011100 $5
#66
0$
#67
1$
b000000000000011101 $5
b011101 5
#68
0$
#69
1$
b011110 5
b000000000000011110 $5
#70
0$
#71
1$
b000000000000011111 $5
b011111 5
#72
0$
#73
1$
b100000 5
b000000000000100000 $5
#74
0$
#75
1$
b000000000000100001 $5
b100001 5
#76
0$
#77
1$
b100010 5
b000000000000100010 $5
#78
0$
#79
1$
b000000000000100011 $5
b100011 5
#80
0$
#81
1$
b100100 5
b000000000000100100 $5
#82
0$
#83
1$
b000000000000100101 $5
b100101 5
#84
0$
#85
1$
b100110 5
b000000000000100110 $5
#86
0$
#87
1$
b000000000000100111 $5
b100111 5
#88
0$
#89
1$
b101000 5
b000000000000101000 $5
#90
0$
#91
1$
b000000000000101001 $5
b101001 5
#92
0$
#93
1$
b101010 5
b000000000000101010 $5
#94
0$
#95
1$
b000000000000101011 $5
b101011 5
#96
0$
#97
1$
b101100 5
b000000000000101100 $5
#98
0$
#99
1$
b000000000000101101 $5
b101101 5
#100
0$
#101
1$
b101110 5
b000000000000101110 $5
#102
0$
#103
1$
b000000000000101111 $5
b101111 5
#104
0$
#105
1$
b110000 5
b000000000000110000 $5
#106
0$
#107
1$
b000000000000110001 $5
b110001 5
#108
0$
#109
1$
b110010 5
b000000000000110010 $5
#110
0$
#111
1$
b000000000000110011 $5
b110011 5
#112
0$
#113
1$
b110100 5
b000000000000110100 $5
#114
0$
#115
1$
b000000000000110101 $5
b110101 5
#116
0$
#117
1$
b000000 5
b000000000000110110 $5
#118
0$
#119
1$
b000000000000110111 $5
14
b000001 5
b010 6
#120
0$
#121
1$
b000010 5
04
b000000000000111000 $5
#122
0$
#123
1$
b000000000000111001 $5
b000011 5
#124
0$
#125
1$
b000100 5
b000000000000111010 $5
#126
0$
#127
1$
b000000000000111011 $5
b000101 5
#128
0$
#129
1$
b000110 5
b000000000000111100 $5
#130
0$
#131
1$
b000000000000111101 $5
b000111 5
#132
0$
#133
1$
b001000 5
b000000000000111110 $5
#134
0$
#135
1$
b000000000000111111 $5
b001001 5
#136
0$
#137
1$
b001010 5
b000000000001000000 $5
#138
0$
#139
1$
b000000000001000001 $5
b001011 5
#140
0$
#141
1$
b001100 5
b000000000001000010 $5
#142
0$
#143
1$
b000000000001000011 $5
b001101 5
#144
0$
#145
1$
b001110 5
b000000000001000100 $5
#146
0$
#147
1$
b000000000001000101 $5
b001111 5
#148
0$
#149
1$
b010000 5
b000000000001000110 $5
#150
0$
#151
1$
b000000000001000111 $5
b010001 5
#152
0$
#153
1$
b010010 5
b000000000001001000 $5
#154
0$
#155
1$
b000000000001001001 $5
b010011 5
#156
0$
#157
1$
b010100 5
b000000000001001010 $5
#158
0$
#159
1$
b000000000001001011 $5
b010101 5
#160
0$
#161
1$
b010110 5
b000000000001001100 $5
#162
0$
#163
1$
b000000000001001101 $5
b010111 5
#164
0$
#165
1$
b011000 5
b000000000001001110 $5
#166
0$
#167
1$
b000000000001001111 $5
b011001 5
#168
0$
#169
1$
b011010 5
b000000000001010000 $5
#170
0$
#171
1$
b000000000001010001 $5
b011011 5
#172
0$
#173
1$
b011100 5
b000000000001010010 $5
#174
0$
#175
1$
b000000000001010011 $5
b011101 5
#176
0$
#177
1$
b011110 5
b000000000001010100 $5
#178
0$
#179
1$
b000000000001010101 $5
b011111 5
#180
0$
#181
1$
b100000 5
b000000000001010110 $5
#182
0$
#183
1$
b000000000001010111 $5
b100001 5
#184
0$
#185
1$
b100010 5
b000000000001011000 $5
#186
0$
#187
1$
b000000000001011001 $5
b100011 5
#188
0$
#189
1$
b100100 5
b000000000001011010 $5
#190
0$
#191
1$
b000000000001011011 $5
b100101 5
#192
0$
#193
1$
b100110 5
b000000000001011100 $5
#194
0$
#195
1$
b000000000001011101 $5
b100111 5
#196
0$
#197
1$
b101000 5
b000000000001011110 $5
#198
0$
#199
1$
b000000000001011111 $5
b101001 5
#200
0$
#201
1$
b101010 5
b000000000001100000 $5
#202
0$
#203
1$
b000000000001100001 $5
b101011 5
#204
0$
#205
1$
b101100 5
b000000000001100010 $5
#206
0$
#207
1$
b000000000001100011 $5
b101101 5
#208
0$
#209
1$
b101110 5
b000000000001100100 $5
#210
0$
#211
1$
b000000000001100101 $5
b101111 5
#212
0$
#213
1$
b110000 5
b000000000001100110 $5
#214
0$
#215
1$
b000000000001100111 $5
b110001 5
#216
0$
#217
1$
b110010 5
b000000000001101000 $5
#218
0$
#219
1$
b000000000001101001 $5
b110011 5
#220
0$
#221
1$
b110100 5
b000000000001101010 $5
#222
0$
#223
1$
b000000000001101011 $5
b110101 5
#224
0$
#225
1$
b000000 5
b000000000001101100 $5
#226
0$
#227
1$
b000000000001101101 $5
14
b000001 5
b011 6
#228
0$
#229
1$
b000010 5
04
b000000000001101110 $5
#230
0$
#231
1$
b000000000001101111 $5
b000011 5
#232
0$
#233
1$
b000100 5
b000000000001110000 $5
#234
0$
#235
1$
b000000000001110001 $5
b000101 5
#236
0$
#237
1$
b000110 5
b000000000001110010 $5
#238
0$
#239
1$
b000000000001110011 $5
b000111 5
#240
0$
#241
1$
b001000 5
b000000000001110100 $5
#242
0$
#243
1$
b000000000001110101 $5
b001001 5
#244
0$
#245
1$
b001010 5
b000000000001110110 $5
#246
0$
#247
1$
b000000000001110111 $5
b001011 5
#248
0$
#249
1$
b001100 5
b000000000001111000 $5
#250
0$
#251
1$
b000000000001111001 $5
b001101 5
#252
0$
#253
1$
b001110 5
b000000000001111010 $5
#254
0$
#255
1$
b000000000001111011 $5
b001111 5
#256
0$
#257
1$
b010000 5
b000000000001111100 $5
#258
0$
#259
1$
b000000000001111101 $5
b010001 5
#260
0$
#261
1$
b010010 5
b000000000001111110 $5
#262
0$
#263
1$
b000000000001111111 $5
b010011 5
#264
0$
#265
1$
b010100 5
b000000000010000000 $5
#266
0$
#267
1$
b000000000010000001 $5
b010101 5
#268
0$
#269
1$
b010110 5
b000000000010000010 $5
#270
0$
#271
1$
b000000000010000011 $5
b010111 5
#272
0$
#273
1$
b011000 5
b000000000010000100 $5
#274
0$
#275
1$
b000000000010000101 $5
b011001 5
#276
0$
#277
1$
b011010 5
b000000000010000110 $5
#278
0$
#279
1$
b000000000010000111 $5
b011011 5
#280
0$
#281
1$
b011100 5
b000000000010001000 $5
#282
0$
#283
1$
b000000000010001001 $5
b011101 5
#284
0$
#285
1$
b011110 5
b000000000010001010 $5
#286
0$
#287
1$
b000000000010001011 $5
b011111 5
#288
0$
#289
1$
b100000 5
b000000000010001100 $5
#290
0$
#291
1$
b000000000010001101 $5
b100001 5
#292
0$
#293
1$
b100010 5
b000000000010001110 $5
#294
0$
#295
1$
b000000000010001111 $5
b100011 5
#296
0$
#297
1$
b100100 5
b000000000010010000 $5
#298
0$
#299
1$
b000000000010010001 $5
b100101 5
#300
0$
#301
1$
b100110 5
b000000000010010010 $5
#302
0$
#303
1$
b000000000010010011 $5
b100111 5
#304
0$
#305
1$
b101000 5
b000000000010010100 $5
#306
0$
#307
1$
b000000000010010101 $5
b101001 5
#308
0$
#309
1$
b101010 5
b000000000010010110 $5
#310
0$
#311
1$
b000000000010010111 $5
b101011 5
#312
0$
#313
1$
b101100 5
b000000000010011000 $5
#314
0$
#315
1$
b000000000010011001 $5
b101101 5
#316
0$
#317
1$
b101110 5
b000000000010011010 $5
#318
0$
#319
1$
b000000000010011011 $5
b101111 5
#320
0$
#321
1$
b110000 5
b000000000010011100 $5
#322
0$
#323
1$
b000000000010011101 $5
b110001 5
#324
0$
#325
1$
b110010 5
b000000000010011110 $5
#326
0$
#327
1$
b000000000010011111 $5
b110011 5
#328
0$
#329
1$
b110100 5
b000000000010100000 $5
#330
0$
#331
1$
b000000000010100001 $5
b110101 5
#332
0$
#333
1$
b000000 5
b000000000010100010 $5
#334
0$
#335
1$
b000000000010100011 $5
14
b000001 5
b100 6
#336
0$
#337
1$
b000010 5
04
b000000000010100100 $5
#338
0$
#339
1$
b000000000010100101 $5
b000011 5
#340
0$
#341
1$
b000100 5
b000000000010100110 $5
#342
0$
#343
1$
b000000000010100111 $5
b000101 5
#344
0$
#345
1$
b000110 5
b000000000010101000 $5
#346
0$
#347
1$
b000000000010101001 $5
b000111 5
#348
0$
#349
1$
b001000 5
b000000000010101010 $5
#350
0$
#351
1$
b000000000010101011 $5
b001001 5
#352
0$
#353
1$
b001010 5
b000000000010101100 $5
#354
0$
#355
1$
b000000000010101101 $5
b001011 5
#356
0$
#357
1$
b001100 5
b000000000010101110 $5
#358
0$
#359
1$
b000000000010101111 $5
b001101 5
#360
0$
#361
1$
b001110 5
b000000000010110000 $5
#362
0$
#363
1$
b000000000010110001 $5
b001111 5
#364
0$
#365
1$
b010000 5
b000000000010110010 $5
#366
0$
#367
1$
b000000000010110011 $5
b010001 5
#368
0$
#369
1$
b010010 5
b000000000010110100 $5
#370
0$
#371
1$
b000000000010110101 $5
b010011 5
#372
0$
#373
1$
b010100 5
b000000000010110110 $5
#374
0$
#375
1$
b000000000010110111 $5
b010101 5
#376
0$
#377
1$
b010110 5
b000000000010111000 $5
#378
0$
#379
1$
b000000000010111001 $5
b010111 5
#380
0$
#381
1$
b011000 5
b000000000010111010 $5
#382
0$
#383
1$
b000000000010111011 $5
b011001 5
#384
0$
#385
1$
b011010 5
b000000000010111100 $5
#386
0$
#387
1$
b000000000010111101 $5
b011011 5
#388
0$
#389
1$
b011100 5
b000000000010111110 $5
#390
0$
#391
1$
b000000000010111111 $5
b011101 5
#392
0$
#393
1$
b011110 5
b000000000011000000 $5
#394
0$
#395
1$
b000000000011000001 $5
b011111 5
#396
0$
#397
1$
b100000 5
b000000000011000010 $5
#398
0$
